{
  "baseUrl" : null,
  "activeEnvironmentId" : null,
  "webAUTPreferences" : {
    "browser" : "Chrome",
    "stopWhenElementNotFound" : false
  },
  "securitySettings" : {
    "certificateSettings" : {
      "storePath" : "C:\\Program Files\\JOSF\\api\\bin\\jdk8u312-b07\\jre\\lib\\security\\cacerts",
      "storePassword" : "changeit",
      "storeType" : "jks",
      "sslCheckingDisabled" : false
    },
    "proxySettings" : {
      "proxyHost" : null,
      "proxyPort" : 8080,
      "proxyUsername" : null,
      "proxyPassword" : null,
      "isEnabled" : false,
      "isEnabledForDriverDownload" : false,
      "isEnabledForBrowserProxy" : false,
      "isEnabledForAPIRequests" : false,
      "isEnabledForGIT" : false,
      "useCredentials" : false,
      "autoDetect" : false
    }
  },
  "licence" : "TU Delft - Pega development\r\n3Ng6Igt1RrOwt+Zs23kbYBZmUnUwwU2lPofVGyscw4JvT6whzHfHpTZ5ic7RArWROX8Idw4W3jBZ\r\nWUujEkWSNYQKAKv/cUgl6JLUZwhhRK9Vm4XeqMo4bRAnzXSl/ZznOi2f215fyCYBHpFag+zBfw=="
}